{
	"info": {
		"_postman_id": "8d8e749a-c7dc-482d-a2b1-79c90a937ac2",
		"name": "Rev_1",
		"schema": "https://schema.getpostman.com/json/collection/v2.1.0/collection.json",
		"_exporter_id": "31570591"
	},
	"item": [
		{
			"name": "Rest_Api",
			"item": [
				{
					"name": "Gate",
					"item": [
						{
							"name": "list users",
							"event": [
								{
									"listen": "test",
									"script": {
										"exec": [
											"// to validate Get method API\r",
											"//declare expected result \r",
											"\r",
											"const id = [7,8,9,10,11,12]\r",
											"\r",
											"const email = [\"michael.lawson@reqres.in\",\"lindsay.ferguson@reqres.in\",\"tobias.funke@reqres.in\",\"byron.fields@reqres.in\",\"george.edwards@reqres.in\",\"rachel.howell@reqres.in\",]\r",
											"const first_name = [\"Michael\", \"Lindsay\", \"Tobias\",\"Byron\",\"George\",\"Rachel\"]\r",
											"\r",
											"//step 2 : extract response body \r",
											"\r",
											"var responseBody = pm.response.json();\r",
											"\r",
											"\r",
											"//extract response body parameter \r",
											"\r",
											"//var res_id = responseBody.data[i].id;\r",
											"//var res_email = responseBody.data[i].email;\r",
											"//var res_first_name = responseBody.data[i].first_name;\r",
											"\r",
											"//to count no.of objects in array \r",
											"var data_array = responseBody.data;\r",
											"var count = Object.keys(data_array).length\r",
											"console.log(count);\r",
											"\r",
											"for(i=0;i<count;i++){\r",
											"\r",
											"//extract response body parameter \r",
											"var res_id = responseBody.data[i].id;\r",
											"var res_email = responseBody.data[i].email;\r",
											"var res_first_name = responseBody.data[i].first_name;\r",
											"\r",
											"//id\r",
											"\r",
											"var exp_id = id[i];\r",
											"pm.test(\"validate responseBody\"+i+\":id\",function(){\r",
											"    pm.expect(res_id).to.eql(exp_id);\r",
											"})\r",
											"\r",
											"//email\r",
											"\r",
											"var exp_email = email[i];\r",
											"pm.test(\"validate responseBodyparameter\"+i+\":email\",function(){\r",
											"    pm.expect(res_email).to.eql(exp_email);\r",
											"})\r",
											"\r",
											"}\r",
											"\r",
											"\r",
											"var res_page = responseBody.page;\r",
											"pm.test(\"validate responsebody parameter: page\", function(){\r",
											"    pm.expect(res_page).to.eql(2)\r",
											"})\r",
											"\r",
											""
										],
										"type": "text/javascript"
									}
								}
							],
							"request": {
								"method": "GET",
								"header": [],
								"url": {
									"raw": "{{  Get list users\n}}\n}}",
									"host": [
										"{{  Get list users\n}}\n}}"
									]
								}
							},
							"response": []
						},
						{
							"name": "user not found",
							"event": [
								{
									"listen": "test",
									"script": {
										"exec": [
											"//Validate status code \r",
											"pm.test(\"validate status code is 404\" , function(){\r",
											"    pm.response.to.have.status(404);\r",
											"})\r",
											"\r",
											"var responseBody = pm.response.json();\r",
											"\r",
											"pm.test(\"validate responsebody\", function(){\r",
											"    pm.expect(responseBody).to.eql({});\r",
											"})"
										],
										"type": "text/javascript"
									}
								}
							],
							"request": {
								"method": "GET",
								"header": [],
								"url": {
									"raw": "https://reqres.in/api/unknown/23",
									"protocol": "https",
									"host": [
										"reqres",
										"in"
									],
									"path": [
										"api",
										"unknown",
										"23"
									]
								}
							},
							"response": []
						}
					]
				},
				{
					"name": "post _create 1",
					"event": [
						{
							"listen": "test",
							"script": {
								"exec": [
									"//validate Ststus code \r",
									"\r",
									"pm.test(\" status code is 201\",function(){\r",
									"    pm.response.to.have.status(201);\r",
									"})\r",
									"\r",
									"//extract reqest Body \r",
									"var requestBody = pm.request.body.raw;\r",
									"requestBody = JSON.parse(requestBody);\r",
									"console.log(requestBody);\r",
									"\r",
									"//extract responsebody parameter\r",
									"var req_name = requestBody.name;\r",
									"var req_job = requestBody.job;\r",
									"//validate response body \r",
									"//extract responsebody\r",
									"\r",
									"var responseBody = pm.response.json();\r",
									"console.log(responseBody)\r",
									"//Extract responsebody parameters \r",
									"\r",
									"var res_name = responseBody.name;\r",
									"console.log(res_name)\r",
									"\r",
									"var res_job = responseBody.job;\r",
									"var res_id = responseBody.id;\r",
									"var res_createdAT = responseBody.createdAT;\r",
									"\r",
									"// test/validate\r",
									"//name\r",
									"pm.test(\"validate responsebody parameter :name\",function(){\r",
									"    pm.expect(res_name).to.eql(req_name);\r",
									"})\r",
									"\r",
									"//job \r",
									"pm.test(\"validate responseBody parameter : job \", function(){\r",
									"    pm.expect(res_job).to.eql(req_job);\r",
									"})\r",
									"\r",
									"//id\r",
									"\r",
									"pm.test(\"validate responseBody parameter : id\", function(){\r",
									"    pm.expect(res_id).to.not.eql(\"0\")\r",
									"    pm.expect(res_id).to.not.eql(null)\r",
									"\r",
									"    res_id = parseInt(res_id);\r",
									"    pm.expect(Number.isInteger(res_id)).to.be.true\r",
									"})\r",
									"\r",
									"\r",
									"\r",
									"\r",
									""
								],
								"type": "text/javascript"
							}
						}
					],
					"request": {
						"method": "POST",
						"header": [],
						"body": {
							"mode": "raw",
							"raw": "{\r\n    \"name\": \"{{Name}}\",\r\n    \"job\": \"{{Job}}\"\r\n}\r\n",
							"options": {
								"raw": {
									"language": "json"
								}
							}
						},
						"url": {
							"raw": "{{post_cretae1_URL\n}}\n}}",
							"host": [
								"{{post_cretae1_URL\n}}\n}}"
							]
						}
					},
					"response": []
				},
				{
					"name": "post _create 1 Copy",
					"event": [
						{
							"listen": "test",
							"script": {
								"exec": [
									"//extract requestbody\r",
									"var requestBody = pm.request.body.raw;\r",
									"requestBody = JSON.parse(requestBody);\r",
									"console.log(requestBody);\r",
									"\r",
									"// extract requestbody parameter \r",
									"\r",
									"var req_name = requestBody.name;\r",
									"var req_job = requestBody.job;\r",
									"\r",
									"//validate responseBody\r",
									"\r",
									"//extract resposebody\r",
									"var responseBody = pm.response.json();\r",
									"console.log(responseBody);\r",
									"\r",
									"//extract responsebody parameter \r",
									"\r",
									"var res_name = responseBody.name;\r",
									"var res_job = responseBody.job;\r",
									"var res_id = responseBody.id;\r",
									"var res_createdAt = responseBody.createdAt;\r",
									"\r",
									"//validate/test\r",
									"\r",
									"//id\r",
									"pm.test(\"validate responseBody parameter : id \", function(){\r",
									"    res_id = parseInt(res_id);\r",
									"    pm.expect(Number.isInteger(res_id)).to.be.true\r",
									"})\r",
									"\r",
									"//date \r",
									"\r",
									"pm.test(\"validate responsebody parameter :date\",function(){\r",
									"    res_createdAt = res_createdAt.slice(0,11)\r",
									" console.log(res_createdAt)\r",
									" var expected_date = new Date().toISOString().slice(0,11);\r",
									" console.log(expected_date);\r",
									" pm.expect(res_createdAt).to.eql(expected_date);\r",
									"})\r",
									"\r",
									"\r",
									""
								],
								"type": "text/javascript"
							}
						},
						{
							"listen": "prerequest",
							"script": {
								"exec": [
									"//var req_name=pm.variables.replaceIn('{{$randomFullName}}');\r",
									"//console.log(req_name);\r",
									"//pm.collectionVariables.set(\"Coll_Req_Name\",req_name);\r",
									"//var req_job=pm.variables.replaceIn('{{$randomJobTitle}}');\r",
									"//console.log(req_job);\r",
									"//pm.collectionVariables.set(\"Coll_Req_Job\",req_job);\r",
									"\r",
									"\r",
									"var req_name = pm.variables.replaceIn('{{$randomFirstName}}');\r",
									"console.log(req_name);\r",
									"\r",
									"pm.collectionVariables.set(\"Coll_Req_Name\",req_name);"
								],
								"type": "text/javascript"
							}
						}
					],
					"request": {
						"method": "POST",
						"header": [],
						"body": {
							"mode": "raw",
							"raw": "{\r\n    \"name\": \"{{Coll_Req_Name}}\",\r\n    \"job\": \"leader\"\r\n}",
							"options": {
								"raw": {
									"language": "json"
								}
							}
						},
						"url": {
							"raw": "https://reqres.in/api/users",
							"protocol": "https",
							"host": [
								"reqres",
								"in"
							],
							"path": [
								"api",
								"users"
							]
						}
					},
					"response": []
				},
				{
					"name": "post _create 1 Copy 2",
					"event": [
						{
							"listen": "test",
							"script": {
								"exec": [
									"//validate status code \r",
									"pm.test(\"validate status code is 201\",function(){\r",
									"    pm.response.to.have.status(201);\r",
									"})\r",
									"\r",
									"//extract request body parameters \r",
									"\r",
									" var requestBody = pm.request.body.raw;\r",
									"\r",
									"requestBody = JSON.parse(requestBody);\r",
									"console.log(requestBody);\r",
									"\r",
									"//extract response body parameters \r",
									"\r",
									"var req_name = requestBody.name;\r",
									"var req_job = requestBody.job;\r",
									"\r",
									"//validate response body parameter \r",
									"\r",
									"///extract response body\r",
									"\r",
									"var responseBody = pm.response.json();\r",
									"\r",
									"//extract parameters\r",
									"\r",
									"var res_name = responseBody.name;\r",
									"var res_id = responseBody.id;\r",
									"var res_createdAt = responseBody.createdAt;\r",
									"\r",
									"//validate \r",
									"\r",
									"pm.test(\"validate :name\",function(){\r",
									"    pm.expect(res_name).to.eql(req_name);\r",
									"})\r",
									"\r",
									"\r",
									"pm.test(\"validate : id\",function(){\r",
									"res_id = parseInt(res_id);\r",
									"pm.expect(Number.isInteger(res_id)).to.be.true;\r",
									"})\r",
									"\r",
									"pm.test(\"validate:date\",function(){\r",
									"    res_createdAt = res_createdAt.slice(0,11);\r",
									"    var expected_date = new Date().toISOString().slice(0,11);\r",
									"    pm.expect(res_createdAt).to.eql(expected_date);\r",
									"})"
								],
								"type": "text/javascript"
							}
						},
						{
							"listen": "prerequest",
							"script": {
								"exec": [
									"var req_job = pm.variables.replaceIn('{{$randomJobArea}}');\r",
									"console.log(req_job);\r",
									"pm.collectionVariables.set(\"Coll_req_job\",req_job);\r",
									"\r",
									""
								],
								"type": "text/javascript"
							}
						}
					],
					"request": {
						"method": "POST",
						"header": [],
						"body": {
							"mode": "raw",
							"raw": "{\r\n    \"name\": \"morpheus\",\r\n    \"job\": \"{{Coll_req_job}}\"\r\n}",
							"options": {
								"raw": {
									"language": "json"
								}
							}
						},
						"url": {
							"raw": "https://reqres.in/api/users",
							"protocol": "https",
							"host": [
								"reqres",
								"in"
							],
							"path": [
								"api",
								"users"
							]
						}
					},
					"response": []
				}
			]
		},
		{
			"name": "Delete",
			"item": [
				{
					"name": "delete",
					"event": [
						{
							"listen": "test",
							"script": {
								"exec": [
									"pm.test(\"validate status code :204\", function(){\r",
									"    pm.response.to.have.status(204)\r",
									"    })\r",
									"\r",
									"    var responseBody = pm.response.text();\r",
									"    console.log(responseBody);\r",
									"    pm.test(\"validate responseBody is empty\",function (){\r",
									"         pm.expect(responseBody).to.eql(\"\")\r",
									"    \r",
									"})"
								],
								"type": "text/javascript"
							}
						}
					],
					"request": {
						"method": "DELETE",
						"header": [],
						"url": {
							"raw": "https://reqres.in/api/users/2",
							"protocol": "https",
							"host": [
								"reqres",
								"in"
							],
							"path": [
								"api",
								"users",
								"2"
							]
						}
					},
					"response": []
				}
			]
		}
	],
	"variable": [
		{
			"key": "coll_req_name)",
			"value": ""
		},
		{
			"key": "Coll_Req_Name",
			"value": ""
		},
		{
			"key": "Coll_req_job",
			"value": ""
		}
	]
}